PAWS - R Ladies Community Data Project
…
## Joining, by = "outcome_trello_id"

## # A tibble: 5 x 3
##   outcome_trello_id        outcome_type outcome_date     
##   <chr>                    <chr>        <chr>            
## 1 5b576c538afe34bf769e70cc Adoption     5/21/2018 3:35 PM
## 2 5b576c538afe34bf769e70cc Adoption     7/27/2018 6:14 PM
## 3 5b576c538afe34bf769e70cc Adoption     8/7/2018 2:40 PM 
## 4 5b576c538afe34bf769e70cc Adoption     9/11/2018 1:11 PM
## 5 5b576c538afe34bf769e70cc Adoption     9/19/2018 3:22 PM

## Joining, by = "outcome_trello_id"

## # A tibble: 476 x 6
##    outcome_trello_ species gender primary_breed outcome_type outcome_date
##    <chr>            <chr>   <chr>  <chr>         <chr>        <chr>       
##  1 57f01b7e681578d Cat     F      Domestic Sho Adoption     11/23/2018 
##  2 57f01b7e681578d Cat     M      Domestic Sho Adoption     11/23/2018 
##  3 5932da6a21a2a4d Cat     F      Domestic Sho Adoption     11/17/2018 
##  4 5932da6a21a2a4d Cat     M      Domestic Sho Adoption     8/19/2018 1
##  5 59a0d77baaece35 Cat     M      Domestic Sho Adoption     12/11/2018 
##  6 59a0d77baaece35 Cat     F      Domestic Sho Adoption     12/11/2018 
##  7 59aad26212cb428 Cat     M      Domestic Sho Adoption     10/8/2018 6
##  8 59aad26212cb428 Cat     F      Domestic Sho Adoption     8/22/2018 5
##  9 59ef829ae5dd93d Cat     M      Siamese       Adoption     3/28/2018 1
## 10 59ef829ae5dd93d Dog     M      Poodle, Mini Adoption     8/13/2018 3
## # ... with 466 more rows
…
